…
### get_attribute_info()

This function also creates a `tibble` object which summarises the name
of all Shapefiles columns (also refered to fields or attributes), and
their data type or format.

``` r
get_attributes_info(path = data_directory, subfolders = TRUE)
#> # A tibble: 32 × 3
#>    shape_name     field_name data_type
#>    <chr>          <chr>      <chr>    
#>  1 dpa_comunas    CUT_REG    String   
#>  2 dpa_comunas    CUT_PROV   String   
#>  3 dpa_comunas    CUT_COM    String   
#>  4 dpa_comunas    REGION     String   
#>  5 dpa_comunas    PROVINCIA  String   
#>  6 dpa_comunas    COMUNA     String   
#>  7 dpa_comunas    SUPERFICIE Real     
#>  8 dpa_provincias CUT_REG    String   
#>  9 dpa_provincias CUT_PROV   String   
#> 10 dpa_provincias REGION     String   
#> # ℹ 22 more rows
```
…
